{
    "popup_item_default": {
        "message": "Implicito",
        "description": "The label of the menu item that disables the User-Agent overrider and lets the browser send its default User-Agent string"
    },
    "popup_item_random_interval_unit_days": {
        "message": "Tago(j)",
        "description": "A User-Agent randomization time interval"
    },
    "popup_item_random_interval_unit_hours": {
        "message": "Horo(j)",
        "description": "A User-Agent randomization time interval"
    },
    "popup_item_random_interval_unit_minutes": {
        "message": "Minuto(j)",
        "description": "A User-Agent randomization time interval"
    },
    "popup_item_random_interval_mode_timed": {
        "message": "Po unu hazardigo en:",
        "description": "The label of the menu item for enabling the time-based User-Agent randomization at regular intervals"
    },
    "popup_item_random_interval_mode_restart": {
        "message": "Nur dum starto",
        "description": "The label of the menu item for enabling the time-based User-Agent randomization only on extension and browser startup"
    },
    "popup_item_random_categories": {
        "message": "Kategorioj:",
        "description": "The section header of the categories selection of random selection mode"
    },
    "popup_item_random": {
        "message": "Ŝalti Hazardan Reĝimon",
        "description": "The label of the menu item for enabling time-based User-Agent randomization"
    },
    "popup_item_override_tpl": {
        "message": "“$HOSTNAME$”",
        "description": "Label of an individual selectable override domain",
        "placeholders": {
            "hostname": {
                "content": "$1",
                "example": "https://www.example.net"
            }
        }
    },
    "popup_item_override": {
        "message": "Devigi por Retejo",
        "description": "Label of the checkbox that can be used to switch from setting the global User-Agent string to a per-site value"
    },
    "popup_item_options": {
        "message": "Preferoj…",
        "description": "The label of the menu item for opening the extension's preference page"
    },
    "icon_title_override_disabled": {
        "message": "Malŝaltita devige",
        "description": "Text displayed in the browser action icon tooltip when no request processing is being done because of an override being set"
    },
    "icon_title_override_enabled": {
        "message": "Ŝaltita devige",
        "description": "Text displayed in the browser action icon tooltip when request processing is being done because of an override being set"
    },
    "icon_title_disabled": {
        "message": "Malŝaltita",
        "description": "Text displayed in the browser action icon tooltip when no request processing is being done because of the global setting"
    },
    "icon_title_enabled": {
        "message": "Ŝaltita",
        "description": "Text displayed in the browser action icon tooltip when request processing is being done because of the global setting"
    },
    "icon_title_random": {
        "message": "Hazarda Reĝimo",
        "description": "Text displayed in the browser action icon tooltip when the User-Agent header is choosen at random"
    },
    "useragent_category_other": {
        "message": "Alio",
        "description": "Default category label for unclassified client software"
    },
    "useragent_category_bot": {
        "message": "Roboto",
        "description": "Default category label for search engine bots"
    },
    "useragent_category_mobile": {
        "message": "Poŝaparato",
        "description": "Default category label for browsers on mobile devices"
    },
    "useragent_category_desktop": {
        "message": "Tabla komputilo",
        "description": "Default category label for browsers on desktop devices"
    },
    "options_entries_heading_string": {
        "message": "Teksto",
        "description": "Options page table editor heading for the column with the actual server-reported User-Agent-Strings"
    },
    "options_entries_heading_category": {
        "message": "Kategorio",
        "description": "Options page table editor heading for the column with general category of the given User-Agent-String"
    },
    "options_entries_heading_label": {
        "message": "Etikedo",
        "description": "Options page table editor heading for the column with user-facing User-Agent-String labels"
    },
    "options_entries_heading_enabled": {
        "message": "Ŝaltita",
        "description": "Options page table editor heading for the column allowing to enabled or disable items"
    },
    "options_entries_switch_table": {
        "message": "Ŝalti Tabelan Reĝimon",
        "description": "Options page link for switching from text to table mode"
    },
    "options_entries_switch_text": {
        "message": "Ŝalti Tekstan Reĝimon",
        "description": "Options page link for switching from table to text mode"
    },
    "options_entries_reset_undo_button": {
        "message": "Malfari restarigon",
        "description": "Label of button for undoing a reset (displayed below the text that asserts that the options have just been reset)"
    },
    "options_entries_reset_undo_text": {
        "message": "Restariĝis implicitaj valoroj",
        "description": "Text of popup that is shown after the reset link has been clicked"
    },
    "options_entries_reset": {
        "message": "Restarigi implicitajn valorojn",
        "description": "Options page link for loading the entries defaults"
    },
    "options_entries_caption": {
        "message": "Listo de klientaj aplikaĵoj",
        "description": "Header text of the entries editor in the extension options"
    },
    "option_random_jitter": {
        "message": "Varianco de hazarda reĝimo",
        "description": "Text of numeric option (0-100) for setting by how many per-cent the random-interval value should (on avarage) be varied"
    },
    "option_popup_override_size_description": {
        "message": "Ŝaltu tion, se via ŝprucmenuo estas tro malgranda por via aparato",
        "description": "Description text of checkbox option to force the extension popup to a static/larger size than it would normally be according to the browser defaults"
    },
    "option_popup_override_size": {
        "message": "Devigi implicitan grandon de ŝprucmenuo",
        "description": "Text of checkbox option to force the extension popup to a static/larger size than it would normally be according to the browser defaults (note that this also has a description attached)"
    },
    "option_badge_text": {
        "message": "Ĉu montri identigilon de klienta aplikaĵo sur ikono?",
        "description": "Text of checkbox option to show/hide the two to four letter abbreviations displayed ontop of the browser action icon"
    },
    "extension_description": {
        "message": "Facile modifi la identigilon de klienta aplikaĵo (User-Agent)",
        "description": "Extension description"
    }
}
